Counts Analysis
…
## Rows: 6795 Columns: 36
## ── Column specification ────────────────────────────────────────────────────────
## Delimiter: "\t"
## chr  (2): Geneid, Strand
## dbl (34): Chr, Start, End, Length, 11308_9_S9_R2_001_aln.bam, 11308_14_S14_R...
## 
## ℹ Use `spec()` to retrieve the full column specification for this data.
## ℹ Specify the column types or set `show_col_types = FALSE` to quiet this message.

counts_bygene_wide

## # A tibble: 6,795 × 36
##    Geneid       Chr Start   End Strand Length `11308_9_S9_R2_001_aln.bam`
##    <chr>      <dbl> <dbl> <dbl> <chr>   <dbl>                       <dbl>
##  1 CNAG_00002     1 12730 13756 +        1027                         304
##  2 CNAG_00003     1 14025 16421 -        2397                          32
##  3 CNAG_00004     1 16427 19850 -        3424                          90
##  4 CNAG_00005     1 20750 22911 -        2162                         566
##  5 CNAG_00006     1 24710 26159 -        1450                        1355
##  6 CNAG_00007     1 26275 28568 +        2294                         536
##  7 CNAG_00008     1 28555 32905 -        4351                         224
##  8 CNAG_00009     1 33086 34879 +        1794                         193
##  9 CNAG_00010     1 35746 39624 -        3879                         198
## 10 CNAG_00011     1 40231 42267 +        2037                         129
## # ℹ 6,785 more rows
## # ℹ 29 more variables: `11308_14_S14_R2_001_aln.bam` <dbl>,
## #   `11308_4_S4_R2_001_aln.bam` <dbl>, `11308_6_S6_R2_001_aln.bam` <dbl>,
## #   `11308_7_S7_R2_001_aln.bam` <dbl>, `11308_17_S17_R2_001_aln.bam` <dbl>,
## #   `11308_5_S5_R2_001_aln.bam` <dbl>, `11308_27_S27_R2_001_aln.bam` <dbl>,
## #   `11308_22_S22_R2_001_aln.bam` <dbl>, `11308_8_S8_R2_001_aln.bam` <dbl>,
## #   `11308_10_S10_R2_001_aln.bam` <dbl>, `11308_24_S24_R2_001_aln.bam` <dbl>, …
…
counts_bygene_long <- counts_bygene_wide %>%
    select(-Chr,-Start,-End,-Strand,-Length) %>%
    pivot_longer(ends_with(".bam"), names_to = "SampleID", values_to = "Count") %>%
    mutate(SampleID = as.numeric(word(SampleID, 2, sep = "_"))) %>%
    group_by(SampleID) %>%
    mutate(TPM = calculate_cpm(Count, round_digits = 2)) %>%
    ungroup() %>%
    left_join(sample_sheet, by = "SampleID") %>%
    select(SampleID, SampleName, FLC1, Condition, Media, Temperature, BioRep, Geneid, Count, TPM) %>%
    arrange(Geneid, FLC1, Condition, Media, Temperature, BioRep)

counts_bygene_long

## # A tibble: 203,850 × 10
##    SampleID SampleName FLC1  Condition     Media Temperature BioRep Geneid Count
##       <dbl> <chr>      <fct> <fct>         <chr>       <dbl> <chr>  <chr>  <dbl>
##  1        1 WT_30_Y_1  WT    "30°C"        YPD            30 1      CNAG_…   322
##  2        2 WT_30_Y_2  WT    "30°C"        YPD            30 2      CNAG_…   378
##  3        3 WT_30_Y_3  WT    "30°C"        YPD            30 3      CNAG_…   346
##  4        7 WT_37_Y_1  WT    "37°C"        YPD            37 1      CNAG_…   396
##  5        8 WT_37_Y_2  WT    "37°C"        YPD            37 2      CNAG_…   437
##  6        9 WT_37_Y_3  WT    "37°C"        YPD            37 3      CNAG_…   304
##  7       13 WT_37_C_1  WT    "37°C\n + CF… YPD_…          37 1      CNAG_…   419
##  8       14 WT_37_C_2  WT    "37°C\n + CF… YPD_…          37 2      CNAG_…   379
##  9       15 WT_37_C_3  WT    "37°C\n + CF… YPD_…          37 3      CNAG_…   300
## 10       19 WT_37_E_1  WT    "37°C\n + EG… YPD_…          37 1      CNAG_…   345
## # ℹ 203,840 more rows
## # ℹ 1 more variable: TPM <dbl>
…
