DGE_WTvsdelta_37C_30C_thesis
…
Load the organised counts

counts_all <- 
  here::here("results", "summaries", "counts_bysamplecode.txt") %>%
  readr::read_tsv(comment = "#",
                  col_types = "ciiiiiiiiiiiiiiiiiiiiiiiiiiiiiii")   %>%
  magrittr::set_rownames(.$Gene)

## Warning: Setting row names on a tibble is deprecated.

counts_all

## # A tibble: 6,795 × 32
##    Gene       Length WT_30_Y_1 WT_30_Y_2 WT_30_Y_3 FL_30_Y_1 FL_30_Y_2 FL_30_Y_3
##  * <chr>       <int>     <int>     <int>     <int>     <int>     <int>     <int>
##  1 CNAG_00002   1027       322       378       346       310       309       174
##  2 CNAG_00003   2397        19        43        27        54        52        33
##  3 CNAG_00004   3424        94        80        83       102        94        65
##  4 CNAG_00005   2162       462       399       385       378       344       310
##  5 CNAG_00006   1450      1019      1533      1256      1505      1359       778
##  6 CNAG_00007   2294       471       703       579       476       407       284
##  7 CNAG_00008   4351       141       226       206       272       259       164
##  8 CNAG_00009   1794       160       162       187       323       250       171
##  9 CNAG_00010   3879       195       199       242       362       272       159
## 10 CNAG_00011   2037        85       117       114       162       139        81
## # ℹ 6,785 more rows
## # ℹ 24 more variables: WT_37_Y_1 <int>, WT_37_Y_2 <int>, WT_37_Y_3 <int>,
## #   FL_37_Y_1 <int>, FL_37_Y_2 <int>, FL_37_Y_3 <int>, WT_37_C_1 <int>,
## #   WT_37_C_2 <int>, WT_37_C_3 <int>, FL_37_C_1 <int>, FL_37_C_2 <int>,
## #   FL_37_C_3 <int>, WT_37_E_1 <int>, WT_37_E_2 <int>, WT_37_E_3 <int>,
## #   FL_37_E_1 <int>, FL_37_E_2 <int>, FL_37_E_3 <int>, WT_37_CE_1 <int>,
## #   WT_37_CE_2 <int>, WT_37_CE_3 <int>, FL_37_CE_1 <int>, FL_37_CE_2 <int>, …
…
sample_sheet 

## # A tibble: 30 × 7
##    SampleID SampleName Condition FLC1  Temperature Media BioRep
##    <fct>    <fct>      <fct>     <fct> <fct>       <fct> <fct> 
##  1 1        WT_30_Y_1  WT_30_Y   WT    30          YPD   1     
##  2 2        WT_30_Y_2  WT_30_Y   WT    30          YPD   2     
##  3 3        WT_30_Y_3  WT_30_Y   WT    30          YPD   3     
##  4 4        FL_30_Y_1  FL_30_Y   delta 30          YPD   1     
##  5 5        FL_30_Y_2  FL_30_Y   delta 30          YPD   2     
##  6 6        FL_30_Y_3  FL_30_Y   delta 30          YPD   3     
##  7 7        WT_37_Y_1  WT_37_Y   WT    37          YPD   1     
##  8 8        WT_37_Y_2  WT_37_Y   WT    37          YPD   2     
##  9 9        WT_37_Y_3  WT_37_Y   WT    37          YPD   3     
## 10 10       FL_37_Y_1  FL_37_Y   delta 37          YPD   1     
## # ℹ 20 more rows
…
List DEGs most UP in WT vs delta

We cut off at 2x changes with 5% FDR here.

# Make data frames of DEGs up and down, arranged by log2FC
DEGdf_WT_up2x_FDR5_37 <- 
  dplyr::filter(deseq_df_WTvsdelta_37C_YPD,
                log2FC > 1, padj < 0.05) %>%
  dplyr::arrange(desc(log2FC))
print(DEGdf_WT_up2x_FDR5_37, n = 20)

## # A tibble: 40 × 6
##    gene       geneName baseMean log2FC stderror     padj
##    <chr>      <chr>       <dbl>  <dbl>    <dbl>    <dbl>
##  1 CNAG_04283 <NA>        247.    9.77   1.03   7.56e-20
##  2 CNAG_03454 <NA>         65.7   1.94   0.618  4.61e- 3
##  3 CNAG_04469 <NA>         88.6   1.82   0.544  2.50e- 3
##  4 CNAG_07695 <NA>        123.    1.51   0.187  1.28e-14
##  5 CNAG_00987 <NA>        380.    1.39   0.133  8.95e-24
##  6 CNAG_04901 <NA>        250.    1.28   0.173  1.71e-12
##  7 CNAG_05144 CAN2       1327.    1.25   0.109  9.21e-29
##  8 CNAG_00904 <NA>         20.0   1.24   0.413  6.95e- 3
##  9 CNAG_00409 <NA>        200.    1.23   0.170  4.66e-12
## 10 CNAG_06096 <NA>       1440.    1.22   0.121  1.70e-22
## 11 CNAG_05340 <NA>         36.6   1.20   0.313  4.49e- 4
## 12 CNAG_03892 <NA>      25143.    1.20   0.100  3.69e-31
## 13 CNAG_00935 <NA>       3176.    1.20   0.142  8.06e-16
## 14 CNAG_01577 <NA>       5183.    1.17   0.101  5.02e-29
## 15 CNAG_04799 <NA>      32148.    1.16   0.103  1.24e-27
## 16 CNAG_03891 <NA>      38325.    1.16   0.0884 1.95e-37
## 17 CNAG_07558 <NA>      13216.    1.14   0.113  2.80e-22
## 18 CNAG_01592 STE14        93.5   1.13   0.235  7.69e- 6
## 19 CNAG_03664 NIC1        434.    1.12   0.127  2.91e-17
## 20 CNAG_04467 <NA>        247.    1.12   0.165  1.19e-10
## # ℹ 20 more rows
…
List DEGs most DOWN in WT vs delta

# Make data frames of DEGs up and down, arranged by log2FC
DEGdf_WT_down2x_FDR5_37 <- 
  dplyr::filter(deseq_df_WTvsdelta_37C_YPD,
                log2FC < -1, padj < 0.05) %>%
  dplyr::arrange(log2FC)
print(DEGdf_WT_down2x_FDR5_37, n = 20)

## # A tibble: 610 × 6
##    gene       geneName baseMean log2FC stderror      padj
##    <chr>      <chr>       <dbl>  <dbl>    <dbl>     <dbl>
##  1 CNAG_04891 <NA>      2814.    -8.73    0.278 3.05e-213
##  2 CNAG_05075 <NA>        71.5   -5.91    0.620 4.55e- 20
##  3 CNAG_02734 <NA>         8.79  -5.36    1.27  1.08e-  4
##  4 CNAG_02526 <NA>        97.0   -5.34    0.452 1.40e- 30
##  5 CNAG_01272 <NA>     17289.    -5.08    0.116 0        
##  6 CNAG_01960 <NA>      2539.    -5.00    0.138 9.44e-286
##  7 CNAG_05662 PTP1        90.4   -4.81    0.399 1.06e- 31
##  8 CNAG_01121 <NA>      2987.    -4.70    0.123 0        
##  9 CNAG_01954 <NA>       107.    -4.66    0.366 2.62e- 35
## 10 CNAG_02217 CHS7       973.    -4.52    0.156 1.18e-182
## 11 CNAG_02934 <NA>       290.    -4.47    0.221 8.74e- 89
## 12 CNAG_00588 <NA>       250.    -4.37    0.237 7.87e- 74
## 13 CNAG_01052 <NA>       291.    -4.20    0.204 2.80e- 92
## 14 CNAG_01560 <NA>         3.89  -4.13    1.40  7.91e-  3
## 15 CNAG_03224 <NA>        53.9   -4.11    0.440 2.32e- 19
## 16 CNAG_04735 MEP1      1672.    -4.07    0.131 1.33e-209
## 17 CNAG_00749 <NA>        37.7   -4.06    0.502 1.12e- 14
## 18 CNAG_05916 <NA>        51.8   -4.05    0.447 3.17e- 18
## 19 CNAG_04142 <NA>       462.    -4.05    0.179 4.16e-111
## 20 CNAG_03782 <NA>         6.77  -4.04    1.18  1.81e-  3
## # ℹ 590 more rows

Print the top 20 named DEGs

DEGdf_WT_down2x_FDR5_37 %>%
  dplyr::filter(!is.na(geneName)) %>%
  print(n = 20)

## # A tibble: 97 × 6
##    gene       geneName baseMean log2FC stderror      padj
##    <chr>      <chr>       <dbl>  <dbl>    <dbl>     <dbl>
##  1 CNAG_05662 PTP1        90.4   -4.81    0.399 1.06e- 31
##  2 CNAG_02217 CHS7       973.    -4.52    0.156 1.18e-182
##  3 CNAG_04735 MEP1      1672.    -4.07    0.131 1.33e-209
##  4 CNAG_00979 CTR4      1988.    -3.83    0.311 4.41e- 33
##  5 CNAG_06347 BLP2      7929.    -3.67    0.119 1.41e-204
##  6 CNAG_01446 HSP12     6534.    -3.25    0.105 4.34e-206
##  7 CNAG_05377 ITR3        42.7   -3.23    0.405 2.62e- 14
##  8 CNAG_01562 BLP4     46184.    -3.10    0.107 4.95e-181
##  9 CNAG_06346 BLP1       149.    -2.83    0.221 7.53e- 36
## 10 CNAG_00654 SRX1       242.    -2.82    0.185 1.93e- 50
## 11 CNAG_04681 LPI14      558.    -2.64    0.129 1.82e- 90
## 12 CNAG_02225 EXG104     101.    -2.61    0.245 5.61e- 25
## 13 CNAG_06052 GAL7       113.    -2.60    0.231 8.45e- 28
## 14 CNAG_03385 PCL103    2727.    -2.54    0.483 8.53e-  7
## 15 CNAG_05067 CLR5         9.27  -2.54    0.728 1.54e-  3
## 16 CNAG_03498 FRE201      82.1   -2.53    0.277 1.81e- 18
## 17 CNAG_04016 ISP5       107.    -2.48    0.227 3.08e- 26
## 18 CNAG_05381 ITR3C       35.3   -2.46    0.377 6.43e- 10
## 19 CNAG_06031 KRE63      115.    -2.37    0.220 1.59e- 25
## 20 CNAG_02008 OVA1     28768.    -2.31    0.311 1.35e- 12
## # ℹ 77 more rows
…
List DEGs most UP in WT vs delta

We cut off at 2x changes with 5% FDR here.

# Make data frames of DEGs up and down, arranged by log2FC
DEGdf_WT_up2x_FDR5_30 <- 
  dplyr::filter(deseq_df_WTvsdelta_30C_YPD,
                log2FC > 1, padj < 0.05) %>%
  dplyr::arrange(desc(log2FC))
print(DEGdf_WT_up2x_FDR5_30, n = 20)

## # A tibble: 201 × 6
##    gene       geneName baseMean log2FC stderror     padj
##    <chr>      <chr>       <dbl>  <dbl>    <dbl>    <dbl>
##  1 CNAG_04283 <NA>       184.    11.0     1.19  7.19e-19
##  2 CNAG_03454 <NA>       296.     2.57    0.503 2.64e- 6
##  3 CNAG_07448 DUR3        39.3    2.10    0.363 8.32e- 8
##  4 CNAG_02849 <NA>        12.0    2.08    0.602 2.17e- 3
##  5 CNAG_06298 <NA>        52.8    1.93    0.371 1.75e- 6
##  6 CNAG_03759 <NA>         8.81   1.74    0.697 3.30e- 2
##  7 CNAG_01577 <NA>      4389.     1.67    0.174 5.68e-20
##  8 CNAG_06745 H3       30828.     1.64    0.454 1.30e- 3
##  9 CNAG_00100 <NA>      4380.     1.63    0.231 3.01e-11
## 10 CNAG_07807 <NA>     17358.     1.57    0.517 7.88e- 3
## 11 CNAG_06746 H2B      49406.     1.57    0.490 4.93e- 3
## 12 CNAG_05340 <NA>        25.8    1.56    0.404 5.58e- 4
## 13 CNAG_06747 H2A-1    29224.     1.55    0.244 2.82e- 9
## 14 CNAG_02588 <NA>        19.1    1.54    0.476 4.26e- 3
## 15 CNAG_03891 <NA>     21680.     1.53    0.180 4.31e-16
## 16 CNAG_05059 <NA>      2266.     1.52    0.237 1.79e- 9
## 17 CNAG_06207 <NA>       266.     1.52    0.556 1.83e- 2
## 18 CNAG_04677 <NA>        73.4    1.49    0.297 4.09e- 6
## 19 CNAG_01153 <NA>     13909.     1.48    0.445 3.36e- 3
## 20 CNAG_00672 <NA>     40991.     1.47    0.205 1.60e-11
## # ℹ 181 more rows

Print the top 20 named DEGs

DEGdf_WT_up2x_FDR5_30 %>%
  dplyr::filter(!is.na(geneName)) %>%
  print(n = 20)

## # A tibble: 31 × 6
##    gene       geneName   baseMean log2FC stderror     padj
##    <chr>      <chr>         <dbl>  <dbl>    <dbl>    <dbl>
##  1 CNAG_07448 DUR3           39.3   2.10    0.363 8.32e- 8
##  2 CNAG_06745 H3          30828.    1.64    0.454 1.30e- 3
##  3 CNAG_06746 H2B         49406.    1.57    0.490 4.93e- 3
##  4 CNAG_06747 H2A-1       29224.    1.55    0.244 2.82e- 9
##  5 CNAG_05144 CAN2         1642.    1.39    0.169 5.67e-15
##  6 CNAG_06923 XFP2          192.    1.37    0.213 1.96e- 9
##  7 CNAG_00232 RPL30       18902.    1.26    0.152 3.50e-15
##  8 CNAG_06770 FBA1         4421.    1.25    0.174 1.51e-11
##  9 CNAG_05465 GIB2        42115.    1.23    0.188 1.16e- 9
## 10 CNAG_05232 RPL2        51756.    1.21    0.180 2.29e-10
## 11 CNAG_01648 H4          36071.    1.20    0.243 6.07e- 6
## 12 CNAG_06447 RPL17       16190.    1.18    0.150 1.09e-13
## 13 CNAG_06811 RPL22alpha  12875.    1.17    0.141 2.28e-15
## 14 CNAG_00370 UBI1        26197.    1.14    0.159 1.43e-11
## 15 CNAG_05896 UBA2          193.    1.14    0.190 2.61e- 8
## 16 CNAG_00934 DAL1          167.    1.12    0.248 3.76e- 5
## 17 CNAG_04758 AMT2           54.1   1.12    0.328 2.50e- 3
## 18 CNAG_01496 PPT1          275.    1.10    0.218 3.50e- 6
## 19 CNAG_02460 HEM13         143.    1.09    0.210 1.84e- 6
## 20 CNAG_00413 OFD1          697.    1.08    0.202 7.91e- 7
## # ℹ 11 more rows

List DEGs most DOWN in WT vs delta

# Make data frames of DEGs up and down, arranged by log2FC
DEGdf_WT_down2x_FDR5_30 <- 
  dplyr::filter(deseq_df_WTvsdelta_30C_YPD,
                log2FC < -1, padj < 0.05) %>%
  dplyr::arrange(log2FC)
print(DEGdf_WT_down2x_FDR5_30, n = 20)

## # A tibble: 733 × 6
##    gene       geneName baseMean log2FC stderror      padj
##    <chr>      <chr>       <dbl>  <dbl>    <dbl>     <dbl>
##  1 CNAG_04891 <NA>      3787.    -9.04    0.273 2.57e-236
##  2 CNAG_01954 <NA>       200.    -8.58    0.858 6.93e- 22
##  3 CNAG_02526 <NA>       343.    -8.35    0.612 2.35e- 40
##  4 CNAG_04142 <NA>       613.    -6.63    0.332 3.68e- 86
##  5 CNAG_07447 <NA>        13.0   -6.08    2.50  3.82e-  2
##  6 CNAG_03867 <NA>        59.1   -6.06    0.690 5.55e- 17
##  7 CNAG_00588 <NA>       619.    -6.06    0.275 6.50e-105
##  8 CNAG_00269 <NA>       372.    -5.98    0.301 2.87e- 85
##  9 CNAG_05075 <NA>        83.3   -5.87    0.565 1.46e- 23
## 10 CNAG_01052 <NA>       414.    -5.79    0.298 7.08e- 82
## 11 CNAG_03833 <NA>        10.2   -5.76    1.29  5.35e-  5
## 12 CNAG_01272 <NA>     14795.    -5.67    0.159 4.42e-274
## 13 CNAG_05662 PTP1       181.    -5.60    0.384 4.19e- 46
## 14 CNAG_04553 <NA>        16.2   -5.52    1.11  4.81e-  6
## 15 CNAG_02217 CHS7      1027.    -5.51    0.227 1.97e-127
## 16 CNAG_03650 <NA>        79.8   -5.34    0.493 1.42e- 25
## 17 CNAG_00827 <NA>        36.4   -5.26    1.19  5.67e-  5
## 18 CNAG_01446 HSP12     2984.    -5.25    0.214 1.44e-129
## 19 CNAG_06347 BLP2      7291.    -5.25    0.200 3.46e-148
## 20 CNAG_05666 <NA>         3.13  -5.04    1.46  2.25e-  3
## # ℹ 713 more rows

Print the top 20 named DEGs

DEGdf_WT_down2x_FDR5_30 %>%
  dplyr::filter(!is.na(geneName)) %>%
  print(n = 20)

## # A tibble: 120 × 6
##    gene       geneName baseMean log2FC stderror      padj
##    <chr>      <chr>       <dbl>  <dbl>    <dbl>     <dbl>
##  1 CNAG_05662 PTP1       181.    -5.60    0.384 4.19e- 46
##  2 CNAG_02217 CHS7      1027.    -5.51    0.227 1.97e-127
##  3 CNAG_01446 HSP12     2984.    -5.25    0.214 1.44e-129
##  4 CNAG_06347 BLP2      7291.    -5.25    0.200 3.46e-148
##  5 CNAG_04735 MEP1      1297.    -4.09    0.204 1.08e- 86
##  6 CNAG_03491 NDX3         1.58  -4.01    1.69  4.44e-  2
##  7 CNAG_04552 ITR1A        3.05  -3.94    1.45  1.93e-  2
##  8 CNAG_03465 LAC1        96.6   -3.64    0.306 1.39e- 30
##  9 CNAG_05258 SMG1      4349.    -3.63    0.248 3.51e- 46
## 10 CNAG_04016 ISP5       139.    -3.41    0.291 8.42e- 30
## 11 CNAG_06524 FRE3         7.75  -3.34    0.915 1.15e-  3
## 12 CNAG_06698 HAD9       203.    -3.33    0.244 2.50e- 40
## 13 CNAG_05377 ITR3        18.8   -3.27    0.586 2.51e-  7
## 14 CNAG_03498 FRE201     142.    -3.16    0.303 9.58e- 24
## 15 CNAG_00036 SEC14-2    150.    -3.13    0.239 3.45e- 37
## 16 CNAG_04837 MLN1         6.67  -3.11    0.933 3.21e-  3
## 17 CNAG_03385 PCL103    2106.    -3.01    0.216 9.27e- 42
## 18 CNAG_00979 CTR4      1598.    -3.00    0.164 6.39e- 72
## 19 CNAG_02877 FZC51      102.    -2.99    0.276 1.60e- 25
## 20 CNAG_02225 EXG104      69.8   -2.96    0.326 4.02e- 18
## # ℹ 100 more rows
…
DEGdf_WT_down2x_FDR5_37 %>% filter(!gene %in% DEGdf_WT_down2x_FDR5_30$gene)

## # A tibble: 153 × 6
##    gene       geneName baseMean log2FC stderror      padj
##    <chr>      <chr>       <dbl>  <dbl>    <dbl>     <dbl>
##  1 CNAG_01560 <NA>         3.89  -4.13    1.40  0.00791  
##  2 CNAG_03797 <NA>        12.6   -3.57    0.760 0.0000132
##  3 CNAG_05278 <NA>         2.45  -3.43    1.51  0.0460   
##  4 CNAG_07793 <NA>         4.55  -3.39    1.23  0.0139   
##  5 CNAG_06911 <NA>         5.82  -3.16    1.03  0.00584  
##  6 CNAG_05324 <NA>         5.02  -2.88    1.05  0.0138   
##  7 CNAG_02489 <NA>        13.0   -2.87    0.652 0.0000456
##  8 CNAG_03551 <NA>         5.00  -2.87    1.07  0.0166   
##  9 CNAG_02521 <NA>         4.54  -2.75    1.08  0.0240   
## 10 CNAG_03842 <NA>         7.91  -2.58    0.829 0.00501  
## # ℹ 143 more rows
…
