Differential Gene Expression of WT vs delta at 37°C in YPD + EGTA samples
…
Load the organised counts

counts_all <- 
  here::here("results", "summaries", "counts_bysamplecode.txt") %>%
  readr::read_tsv(comment = "#",
                  col_types = "ciiiiiiiiiiiiiiiiiiiiiiiiiiiiiii")   %>%
  magrittr::set_rownames(.$Gene)

## Warning: Setting row names on a tibble is deprecated.

counts_all

## # A tibble: 6,795 × 32
##    Gene       Length WT_30_Y_1 WT_30_Y_2 WT_30_Y_3 FL_30_Y_1 FL_30_Y_2 FL_30_Y_3
##  * <chr>       <int>     <int>     <int>     <int>     <int>     <int>     <int>
##  1 CNAG_00002   1027       322       378       346       310       309       174
##  2 CNAG_00003   2397        19        43        27        54        52        33
##  3 CNAG_00004   3424        94        80        83       102        94        65
##  4 CNAG_00005   2162       462       399       385       378       344       310
##  5 CNAG_00006   1450      1019      1533      1256      1505      1359       778
##  6 CNAG_00007   2294       471       703       579       476       407       284
##  7 CNAG_00008   4351       141       226       206       272       259       164
##  8 CNAG_00009   1794       160       162       187       323       250       171
##  9 CNAG_00010   3879       195       199       242       362       272       159
## 10 CNAG_00011   2037        85       117       114       162       139        81
## # ℹ 6,785 more rows
## # ℹ 24 more variables: WT_37_Y_1 <int>, WT_37_Y_2 <int>, WT_37_Y_3 <int>,
## #   FL_37_Y_1 <int>, FL_37_Y_2 <int>, FL_37_Y_3 <int>, WT_37_C_1 <int>,
## #   WT_37_C_2 <int>, WT_37_C_3 <int>, FL_37_C_1 <int>, FL_37_C_2 <int>,
## #   FL_37_C_3 <int>, WT_37_E_1 <int>, WT_37_E_2 <int>, WT_37_E_3 <int>,
## #   FL_37_E_1 <int>, FL_37_E_2 <int>, FL_37_E_3 <int>, WT_37_CE_1 <int>,
## #   WT_37_CE_2 <int>, WT_37_CE_3 <int>, FL_37_CE_1 <int>, FL_37_CE_2 <int>, …
…
sample_sheet 

## # A tibble: 30 × 7
##    SampleID SampleName Condition FLC1  Temperature Media BioRep
##    <fct>    <fct>      <fct>     <fct> <fct>       <fct> <fct> 
##  1 1        WT_30_Y_1  WT_30_Y   WT    30          YPD   1     
##  2 2        WT_30_Y_2  WT_30_Y   WT    30          YPD   2     
##  3 3        WT_30_Y_3  WT_30_Y   WT    30          YPD   3     
##  4 4        FL_30_Y_1  FL_30_Y   delta 30          YPD   1     
##  5 5        FL_30_Y_2  FL_30_Y   delta 30          YPD   2     
##  6 6        FL_30_Y_3  FL_30_Y   delta 30          YPD   3     
##  7 7        WT_37_Y_1  WT_37_Y   WT    37          YPD   1     
##  8 8        WT_37_Y_2  WT_37_Y   WT    37          YPD   2     
##  9 9        WT_37_Y_3  WT_37_Y   WT    37          YPD   3     
## 10 10       FL_37_Y_1  FL_37_Y   delta 37          YPD   1     
## # ℹ 20 more rows
…
List DEGs most UP in WT vs delta

We cut off at 2x changes with 5% FDR here.

# Make data frames of DEGs up and down, arranged by log2FC
DEGdf_WT_37C_EGTA_up2x_FDR5 <- 
  dplyr::filter(deseq_df_WTvsdelta_37C_EGTA,
                log2FC > 1, padj < 0.05) %>%
  dplyr::arrange(desc(log2FC))
print(DEGdf_WT_37C_EGTA_up2x_FDR5, n = 20)

## # A tibble: 140 × 6
##    gene       geneName baseMean log2FC stderror     padj
##    <chr>      <chr>       <dbl>  <dbl>    <dbl>    <dbl>
##  1 CNAG_04283 <NA>       309.    11.0     1.19  4.99e-19
##  2 CNAG_06609 <NA>         3.60   2.94    1.19  2.55e- 2
##  3 CNAG_04901 <NA>       106.     2.61    0.251 5.21e-24
##  4 CNAG_00904 <NA>        14.8    2.53    0.555 1.92e- 5
##  5 CNAG_06745 H3       15794.     2.38    0.163 2.30e-46
##  6 CNAG_04168 <NA>      1680.     2.10    0.156 1.25e-39
##  7 CNAG_01577 <NA>      2721.     1.78    0.157 1.50e-28
##  8 CNAG_07448 DUR3        66.4    1.78    0.293 7.94e- 9
##  9 CNAG_06096 <NA>       823.     1.75    0.192 1.27e-18
## 10 CNAG_05759 <NA>      2799.     1.71    0.138 1.05e-33
## 11 CNAG_06747 H2A-1    16090.     1.71    0.128 2.83e-39
## 12 CNAG_02100 FAS2      8262.     1.68    0.141 2.34e-31
## 13 CNAG_05357 <NA>        48.7    1.68    0.300 1.29e- 7
## 14 CNAG_02099 FAS1      7420.     1.66    0.144 3.58e-29
## 15 CNAG_04215 MET3      2124.     1.62    0.428 4.58e- 4
## 16 CNAG_01656 <NA>        65.6    1.61    0.260 3.48e- 9
## 17 CNAG_05144 CAN2       961.     1.61    0.136 1.24e-30
## 18 CNAG_03168 <NA>      1032.     1.60    0.179 5.72e-18
## 19 CNAG_07648 <NA>        79.9    1.58    0.243 6.32e-10
## 20 CNAG_00236 <NA>        93.3    1.55    0.224 3.69e-11
## # ℹ 120 more rows

Print the top 20 named DEGs

DEGdf_WT_37C_EGTA_up2x_FDR5 %>%
  dplyr::filter(!is.na(geneName)) %>%
  print(n = 20)

## # A tibble: 32 × 6
##    gene       geneName baseMean log2FC stderror     padj
##    <chr>      <chr>       <dbl>  <dbl>    <dbl>    <dbl>
##  1 CNAG_06745 H3        15794.    2.38    0.163 2.30e-46
##  2 CNAG_07448 DUR3         66.4   1.78    0.293 7.94e- 9
##  3 CNAG_06747 H2A-1     16090.    1.71    0.128 2.83e-39
##  4 CNAG_02100 FAS2       8262.    1.68    0.141 2.34e-31
##  5 CNAG_02099 FAS1       7420.    1.66    0.144 3.58e-29
##  6 CNAG_04215 MET3       2124.    1.62    0.428 4.58e- 4
##  7 CNAG_05144 CAN2        961.    1.61    0.136 1.24e-30
##  8 CNAG_04640 ACL1       3260.    1.50    0.158 4.47e-20
##  9 CNAG_06746 H2B       28958.    1.40    0.118 2.86e-31
## 10 CNAG_04245 CHI22      1456.    1.34    0.114 2.61e-30
## 11 CNAG_03716 BLP6        153.    1.34    0.186 5.07e-12
## 12 CNAG_01592 STE14        64.1   1.34    0.258 1.03e- 6
## 13 CNAG_01908 HEM4         52.8   1.32    0.285 1.37e- 5
## 14 CNAG_00235 AMT1        138.    1.32    0.184 7.23e-12
## 15 CNAG_01721 HEM3        931.    1.30    0.138 1.49e-19
## 16 CNAG_00876 FRE7        658.    1.26    0.128 1.27e-21
## 17 CNAG_06205 BLP3        841.    1.24    0.116 3.03e-25
## 18 CNAG_01648 H4        26125.    1.23    0.124 6.45e-22
## 19 CNAG_05968 CDC420      676.    1.19    0.121 1.78e-21
## 20 CNAG_03322 UXS1       2221.    1.16    0.142 4.28e-15
## # ℹ 12 more rows

List DEGs most DOWN in WT vs delta

# Make data frames of DEGs up and down, arranged by log2FC
DEGdf_WT_37C_EGTA_down2x_FDR5 <- 
  dplyr::filter(deseq_df_WTvsdelta_37C_EGTA,
                log2FC < -1, padj < 0.05) %>%
  dplyr::arrange(log2FC)
print(DEGdf_WT_37C_EGTA_down2x_FDR5, n = 20)

## # A tibble: 910 × 6
##    gene       geneName baseMean log2FC stderror      padj
##    <chr>      <chr>       <dbl>  <dbl>    <dbl>     <dbl>
##  1 CNAG_04891 <NA>      2813.    -8.63    0.288 1.24e-194
##  2 CNAG_00588 <NA>      1877.    -6.78    0.219 9.53e-208
##  3 CNAG_03782 <NA>        54.9   -6.57    0.870 4.79e- 13
##  4 CNAG_02526 <NA>       466.    -6.56    0.522 1.47e- 34
##  5 CNAG_05662 PTP1      1255.    -6.03    0.222 5.24e-160
##  6 CNAG_00269 <NA>        71.9   -5.74    0.581 1.08e- 21
##  7 CNAG_04105 <NA>      6845.    -5.21    0.126 0        
##  8 CNAG_01121 <NA>      5061.    -4.86    0.130 1.09e-303
##  9 CNAG_07912 <NA>         6.00  -4.82    1.32  7.27e-  4
## 10 CNAG_06493 <NA>       150.    -4.80    0.509 8.40e- 20
## 11 CNAG_03058 <NA>      6939.    -4.73    0.124 0        
## 12 CNAG_05994 <NA>       786.    -4.63    0.175 2.62e-152
## 13 CNAG_01954 <NA>       142.    -4.63    0.313 7.46e- 48
## 14 CNAG_02706 <NA>       224.    -4.56    0.261 3.97e- 66
## 15 CNAG_00827 <NA>        74.4   -4.55    0.442 1.81e- 23
## 16 CNAG_05641 <NA>        98.8   -4.53    0.357 2.35e- 35
## 17 CNAG_05916 <NA>       153.    -4.46    0.303 1.86e- 47
## 18 CNAG_00485 <NA>       387.    -4.45    0.206 2.48e-101
## 19 CNAG_04837 MLN1        72.8   -4.44    0.429 1.15e- 23
## 20 CNAG_03492 <NA>      8120.    -4.34    0.167 5.29e-147
## # ℹ 890 more rows

Print the top 20 named DEGs

DEGdf_WT_37C_EGTA_down2x_FDR5 %>%
  dplyr::filter(!is.na(geneName)) %>%
  print(n = 20)

## # A tibble: 127 × 6
##    gene       geneName baseMean log2FC stderror      padj
##    <chr>      <chr>       <dbl>  <dbl>    <dbl>     <dbl>
##  1 CNAG_05662 PTP1      1255.    -6.03    0.222 5.24e-160
##  2 CNAG_04837 MLN1        72.8   -4.44    0.429 1.15e- 23
##  3 CNAG_04735 MEP1      1518.    -3.97    0.165 1.29e-125
##  4 CNAG_01653 CIG1      2716.    -3.86    0.148 2.12e-146
##  5 CNAG_05427 GPG1         1.44  -3.76    1.69  4.70e-  2
##  6 CNAG_06347 BLP2      8360.    -3.53    0.174 2.29e- 89
##  7 CNAG_06291 FPD1       316.    -3.53    0.225 1.14e- 53
##  8 CNAG_03572 OPS1       612.    -3.28    0.157 6.48e- 95
##  9 CNAG_01562 BLP4     61100.    -3.15    0.164 3.96e- 80
## 10 CNAG_04217 PCK1        78.5   -2.99    0.301 6.29e- 22
## 11 CNAG_03910 ITR6       849.    -2.98    0.187 1.62e- 55
## 12 CNAG_06576 CAR1      8866.    -2.96    0.102 1.39e-182
## 13 CNAG_05381 ITR3C      126.    -2.89    0.265 2.94e- 26
## 14 CNAG_03398 ZIP2       174.    -2.85    0.220 5.91e- 37
## 15 CNAG_05785 STB4        38.5   -2.77    0.409 1.03e- 10
## 16 CNAG_02877 FZC51      427.    -2.75    0.168 3.51e- 58
## 17 CNAG_01446 HSP12    11711.    -2.74    0.134 6.98e- 91
## 18 CNAG_00654 SRX1       319.    -2.65    0.176 1.56e- 49
## 19 CNAG_00559 BZP3      1172.    -2.65    0.132 2.05e- 87
## 20 CNAG_06574 APP1       443.    -2.62    0.156 4.27e- 61
## # ℹ 107 more rows
…
