Differential Gene Expression of delta at 37°C vs delta at 30°C in YPD samples
…
Load the organised counts

counts_all <- 
  here::here("results", "summaries", "counts_bysamplecode.txt") %>%
  readr::read_tsv(comment = "#",
                  col_types = "ciiiiiiiiiiiiiiiiiiiiiiiiiiiiiii")   %>%
  magrittr::set_rownames(.$Gene)

## Warning: Setting row names on a tibble is deprecated.

counts_all

## # A tibble: 6,795 × 32
##    Gene       Length WT_30_Y_1 WT_30_Y_2 WT_30_Y_3 FL_30_Y_1 FL_30_Y_2 FL_30_Y_3
##  * <chr>       <int>     <int>     <int>     <int>     <int>     <int>     <int>
##  1 CNAG_00002   1027       322       378       346       310       309       174
##  2 CNAG_00003   2397        19        43        27        54        52        33
##  3 CNAG_00004   3424        94        80        83       102        94        65
##  4 CNAG_00005   2162       462       399       385       378       344       310
##  5 CNAG_00006   1450      1019      1533      1256      1505      1359       778
##  6 CNAG_00007   2294       471       703       579       476       407       284
##  7 CNAG_00008   4351       141       226       206       272       259       164
##  8 CNAG_00009   1794       160       162       187       323       250       171
##  9 CNAG_00010   3879       195       199       242       362       272       159
## 10 CNAG_00011   2037        85       117       114       162       139        81
## # ℹ 6,785 more rows
## # ℹ 24 more variables: WT_37_Y_1 <int>, WT_37_Y_2 <int>, WT_37_Y_3 <int>,
## #   FL_37_Y_1 <int>, FL_37_Y_2 <int>, FL_37_Y_3 <int>, WT_37_C_1 <int>,
## #   WT_37_C_2 <int>, WT_37_C_3 <int>, FL_37_C_1 <int>, FL_37_C_2 <int>,
## #   FL_37_C_3 <int>, WT_37_E_1 <int>, WT_37_E_2 <int>, WT_37_E_3 <int>,
## #   FL_37_E_1 <int>, FL_37_E_2 <int>, FL_37_E_3 <int>, WT_37_CE_1 <int>,
## #   WT_37_CE_2 <int>, WT_37_CE_3 <int>, FL_37_CE_1 <int>, FL_37_CE_2 <int>, …
…
sample_sheet 

## # A tibble: 30 × 7
##    SampleID SampleName Condition FLC1  Temperature Media BioRep
##    <fct>    <fct>      <fct>     <fct> <fct>       <fct> <fct> 
##  1 1        WT_30_Y_1  WT_30_Y   WT    30          YPD   1     
##  2 2        WT_30_Y_2  WT_30_Y   WT    30          YPD   2     
##  3 3        WT_30_Y_3  WT_30_Y   WT    30          YPD   3     
##  4 4        FL_30_Y_1  FL_30_Y   delta 30          YPD   1     
##  5 5        FL_30_Y_2  FL_30_Y   delta 30          YPD   2     
##  6 6        FL_30_Y_3  FL_30_Y   delta 30          YPD   3     
##  7 7        WT_37_Y_1  WT_37_Y   WT    37          YPD   1     
##  8 8        WT_37_Y_2  WT_37_Y   WT    37          YPD   2     
##  9 9        WT_37_Y_3  WT_37_Y   WT    37          YPD   3     
## 10 10       FL_37_Y_1  FL_37_Y   delta 37          YPD   1     
## # ℹ 20 more rows
…
List DEGs most UP in 37°C vs 30°C in delta

We cut off at 2x changes with 5% FDR here.

# Make data frames of DEGs up and down, arranged by log2FC
DEGdf_WT_up2x_FDR5 <- 
  dplyr::filter(deseq_df_37Cvs30C_delta_YPD,
                log2FC > 1, padj < 0.05) %>%
  dplyr::arrange(desc(log2FC))
print(DEGdf_WT_up2x_FDR5, n = 20)

## # A tibble: 134 × 6
##    gene       geneName baseMean log2FC stderror     padj
##    <chr>      <chr>       <dbl>  <dbl>    <dbl>    <dbl>
##  1 CNAG_06718 <NA>         2.97   4.73    1.45  6.93e- 3
##  2 CNAG_01368 <NA>         4.68   4.36    1.35  7.45e- 3
##  3 CNAG_02582 <NA>         2.04   4.19    1.57  3.16e- 2
##  4 CNAG_00813 <NA>         5.38   3.69    1.18  9.77e- 3
##  5 CNAG_02044 <NA>         7.05   3.27    1.00  6.76e- 3
##  6 CNAG_07795 <NA>         8.01   3.25    0.891 2.09e- 3
##  7 CNAG_02706 <NA>       126.     3.20    0.241 2.00e-37
##  8 CNAG_07493 <NA>       246.     2.92    0.188 1.35e-51
##  9 CNAG_01936 <NA>        21.1    2.22    0.466 3.04e- 5
## 10 CNAG_07347 <NA>      1656.     2.20    0.109 5.30e-87
## 11 CNAG_04553 <NA>       116.     2.18    0.243 4.08e-17
## 12 CNAG_05356 <NA>        68.9    2.07    0.264 4.42e-13
## 13 CNAG_07663 <NA>        23.3    2.05    0.469 1.47e- 4
## 14 CNAG_07648 <NA>        57.7    1.96    0.287 5.09e-10
## 15 CNAG_00162 AOX1       213.     1.93    0.169 1.57e-27
## 16 CNAG_04337 <NA>        27.8    1.92    0.400 2.55e- 5
## 17 CNAG_03971 <NA>        26.6    1.89    0.410 5.78e- 5
## 18 CNAG_01937 <NA>        27.0    1.88    0.415 7.75e- 5
## 19 CNAG_07486 <NA>       145.     1.86    0.187 7.04e-21
## 20 CNAG_02701 <NA>       905.     1.84    0.156 7.46e-30
## # ℹ 114 more rows
…
List DEGs most DOWN in 37°C vs 30°C in delta

# Make data frames of DEGs up and down, arranged by log2FC
DEGdf_WT_down2x_FDR5 <- 
  dplyr::filter(deseq_df_37Cvs30C_delta_YPD,
                log2FC < -1, padj < 0.05) %>%
  dplyr::arrange(log2FC)
print(DEGdf_WT_down2x_FDR5, n = 20)

## # A tibble: 55 × 6
##    gene       geneName baseMean log2FC stderror     padj
##    <chr>      <chr>       <dbl>  <dbl>    <dbl>    <dbl>
##  1 CNAG_00269 <NA>       530.    -3.03   0.148  1.30e-89
##  2 CNAG_01223 <NA>      1060.    -2.90   0.139  1.62e-93
##  3 CNAG_04217 PCK1       387.    -2.58   0.329  3.34e-13
##  4 CNAG_00904 <NA>        37.1   -2.44   0.371  2.19e- 9
##  5 CNAG_02526 <NA>       533.    -2.28   0.127  3.23e-69
##  6 CNAG_01702 <NA>       150.    -2.12   0.207  3.99e-22
##  7 CNAG_03454 <NA>        68.1   -2.07   0.731  2.16e- 2
##  8 CNAG_04459 <NA>        78.6   -1.94   0.244  2.03e-13
##  9 CNAG_06698 HAD9       302.    -1.91   0.152  1.41e-33
## 10 CNAG_03465 LAC1       147.    -1.86   0.176  1.58e-23
## 11 CNAG_03519 <NA>        40.3   -1.83   0.333  1.05e- 6
## 12 CNAG_05303 ICL1        38.7   -1.82   0.350  4.34e- 6
## 13 CNAG_02049 PUT1        49.2   -1.81   0.309  1.53e- 7
## 14 CNAG_04523 <NA>         9.69  -1.79   0.607  1.64e- 2
## 15 CNAG_00588 <NA>      1017.    -1.78   0.152  2.32e-29
## 16 CNAG_00587 <NA>       167.    -1.64   0.175  1.05e-18
## 17 CNAG_06524 FRE3        12.2   -1.57   0.546  1.95e- 2
## 18 CNAG_06291 FPD1       266.    -1.54   0.156  9.67e-21
## 19 CNAG_05602 PUT2      9903.    -1.53   0.0875 2.50e-65
## 20 CNAG_03833 <NA>        17.7   -1.47   0.508  1.87e- 2
## # ℹ 35 more rows
…
