Overlap in DGE in Flc1∆ vs WT and the Chow et al. 2017 Crz1 and Cna1 DGE dataset
…
A

## TableGrob (2 x 1) "arrange": 2 grobs
##   z     cells    name                     grob
## 1 1 (2-2,1-1) arrange eulergram[euler.diagram]
## 2 2 (1-1,1-1) arrange       text[GRID.text.13]

Genes in common

DGE_chow2017 %>% 
  filter(GeneID %in% deglist_WTvsdelta_37C$GeneID)

## # A tibble: 193 × 4
##    GeneID     GeneName GeneDescription              Dataset                 
##    <chr>      <chr>    <chr>                        <fct>                   
##  1 CNAG_06835 KRE61    Glucosidase                  cna1_crz1_thermal_stress
##  2 CNAG_00546 CHS6     Chitin synthase 6            cna1_crz1_thermal_stress
##  3 CNAG_05818 CHS5     Chitin synthase 5            cna1_crz1_thermal_stress
##  4 CNAG_06336 BGL2     Glucan 1,3 β-glucosidase     cna1_crz1_thermal_stress
##  5 CNAG_05458 <NA>     Endo-1,3(4)-β-glucanase      cna1_crz1_thermal_stress
##  6 CNAG_03412 CTS1     Chitinase 1                  cna1_crz1_thermal_stress
##  7 CNAG_02217 CHS7     Chitin synthase 7            cna1_crz1_thermal_stress
##  8 CNAG_00663 <NA>     <NA>                         cna1_crz1_thermal_stress
##  9 CNAG_03135 <NA>     Magnesium transporter NIPA2  cna1_crz1_thermal_stress
## 10 CNAG_03242 RIM2     Peroxisomal membrane protein cna1_crz1_thermal_stress
## # ℹ 183 more rows
…
